Lab 1
…
Problem 4

washers %>%
  count(BrandName) %>%
  arrange(desc(n))

# A tibble: 22 × 2
   BrandName      n
   <fct>      <int>
 1 LG            50
 2 GE            49
 3 Samsung       47
 4 Kenmore       30
 5 Whirlpool     26
 6 Maytag        18
 7 Electrolux     7
 8 Asko           4
 9 Bosch          4
10 Miele          4
# ℹ 12 more rows
…
